^C:\USERS\USER\DOCUMENTS\VISUAL STUDIO 2015\PROJECTS\0B\0B\STDAFX.CPP
C:\USERS\USER\DOCUMENTS\VISUAL STUDIO 2015\PROJECTS\0B\0B\RELEASE\0B.PCH
C:\USERS\USER\DOCUMENTS\VISUAL STUDIO 2015\PROJECTS\0B\0B\RELEASE\VC140.PDB
C:\USERS\USER\DOCUMENTS\VISUAL STUDIO 2015\PROJECTS\0B\0B\RELEASE\STDAFX.OBJ
^C:\USERS\USER\DOCUMENTS\VISUAL STUDIO 2015\PROJECTS\0B\0B\0B.CPP
C:\USERS\USER\DOCUMENTS\VISUAL STUDIO 2015\PROJECTS\0B\0B\RELEASE\VC140.PDB
C:\USERS\USER\DOCUMENTS\VISUAL STUDIO 2015\PROJECTS\0B\0B\RELEASE\0B.OBJ
^C:\BITBUCKET\LABS\0B\0B\STDAFX.CPP
C:\BITBUCKET\LABS\0B\0B\RELEASE\0B.PCH
C:\BITBUCKET\LABS\0B\0B\RELEASE\VC140.PDB
C:\BITBUCKET\LABS\0B\0B\RELEASE\STDAFX.OBJ
^C:\BITBUCKET\LABS\0B\0B\0B.CPP
C:\BITBUCKET\LABS\0B\0B\RELEASE\VC140.PDB
C:\BITBUCKET\LABS\0B\0B\RELEASE\0B.OBJ
