^C:\USERS\USER\DOCUMENTS\VISUAL STUDIO 2015\PROJECTS\0B\0B\RELEASE\0B.OBJ|C:\USERS\USER\DOCUMENTS\VISUAL STUDIO 2015\PROJECTS\0B\0B\RELEASE\STDAFX.OBJ
C:\USERS\USER\DOCUMENTS\VISUAL STUDIO 2015\PROJECTS\0B\RELEASE\0B.EXE
C:\USERS\USER\DOCUMENTS\VISUAL STUDIO 2015\PROJECTS\0B\RELEASE\0B.IPDB
C:\USERS\USER\DOCUMENTS\VISUAL STUDIO 2015\PROJECTS\0B\RELEASE\0B.IOBJ
C:\USERS\USER\DOCUMENTS\VISUAL STUDIO 2015\PROJECTS\0B\RELEASE\0B.PDB
^C:\BITBUCKET\LABS\0B\0B\RELEASE\0B.OBJ|C:\BITBUCKET\LABS\0B\0B\RELEASE\STDAFX.OBJ
C:\BITBUCKET\LABS\0B\RELEASE\0B.EXE
C:\BITBUCKET\LABS\0B\RELEASE\0B.IPDB
C:\BITBUCKET\LABS\0B\RELEASE\0B.IOBJ
C:\BITBUCKET\LABS\0B\RELEASE\0B.PDB
